{
  "IcoMoonType": "selection",
  "icons": [
    {
      "icon": {
        "paths": [
          "M441.262 511.864c-14.935-14.392-28.512-27.426-42.090-40.732-125.997-125.997-251.995-252.266-377.992-378.264-15.75-15.478-23.896-32.857-17.65-54.852 10.047-35.844 52.408-49.693 81.464-26.612 5.974 4.616 11.405 10.319 16.836 16.021 134.144 134.144 268.016 268.287 402.16 402.16 3.259 3.259 6.517 5.974 14.12 13.306 2.715-4.888 4.073-10.319 7.603-13.849 134.958-134.415 270.188-268.831 404.875-403.246 15.75-15.75 33.4-23.353 55.124-17.379 37.745 10.319 50.236 55.395 23.081 84.451-21.452 22.81-43.99 44.262-66.257 66.257-115.136 114.592-230.271 229.185-345.678 343.777-2.987 2.715-5.431 5.974-9.233 9.776 3.53 3.802 6.789 7.603 10.047 10.862 133.601 133.872 267.473 267.473 401.345 401.345 3.802 3.802 7.875 7.603 11.405 11.676 19.823 21.995 19.008 53.495-1.629 73.317-20.366 19.551-51.051 19.551-72.231-1.086-37.473-36.659-74.404-74.132-111.334-111.334-99.929-99.929-199.586-199.586-299.515-299.515-3.53-3.53-6.517-7.603-10.862-12.763-5.431 5.159-9.504 8.689-13.577 12.763-136.316 135.501-272.632 271.003-408.948 406.776-15.207 15.207-32.586 23.081-53.766 17.65-39.917-10.319-51.594-57.025-21.724-87.166 46.706-46.977 93.683-93.14 140.389-139.846 91.239-90.696 182.207-181.121 273.447-271.818 2.987-3.259 5.974-6.517 10.59-11.676z"
        ],
        "attrs": [
          {}
        ],
        "width": 1025,
        "isMulticolor": false,
        "isMulticolor2": false,
        "grid": 14,
        "tags": [
          "close1"
        ]
      },
      "attrs": [
        {}
      ],
      "properties": {
        "order": 13,
        "id": 9,
        "name": "close1",
        "prevSize": 32,
        "code": 59652
      },
      "setIdx": 0,
      "setId": 5,
      "iconIdx": 0
    },
    {
      "icon": {
        "paths": [
          "M618.689 797.219c-64.067-1.608-130.815-18.228-191.933-54.953-7.506-4.557-13.403-2.949-19.032 2.949-10.723 10.723-21.445 21.445-32.168 32.168-72.377 72.377-144.754 144.486-217.131 216.863-21.445 21.445-46.375 32.436-77.202 29.219-37.261-4.021-62.191-24.93-75.058-58.438-10.991-28.951-7.506-58.17 11.795-83.904 6.97-9.114 15.28-17.424 23.59-25.734 78.006-78.006 155.745-156.281 234.019-234.019 9.382-9.114 10.991-15.816 4.021-28.415-45.571-82.831-62.191-171.024-44.766-264.846 20.373-110.71 77.738-197.294 169.952-260.557 50.932-35.116 108.029-56.025 169.684-64.067 56.829-7.238 112.586-3.485 167.003 13.135 81.223 24.662 148.775 70.769 200.243 138.588 62.459 81.759 90.337 174.241 80.955 277.177-12.867 139.125-82.027 243.133-201.315 313.365-60.046 35.116-126.258 50.932-202.655 51.468zM624.586 681.952c157.085 2.681 285.755-124.649 286.291-282.002 0.536-158.425-123.577-284.951-283.074-286.023-156.549-1.34-284.415 125.99-285.487 283.342-0.804 154.94 127.598 286.291 282.27 284.683z",
          "M667.745 182.015c25.734 2.681 51.736 15.816 75.862 33.24 37.261 27.342 67.82 60.85 86.852 103.204 9.65 21.445 20.909 44.23 5.629 68.624-10.186 16.084-24.662 23.053-42.89 21.445-18.496-1.608-32.168-10.991-37.797-29.219-10.454-34.312-26.538-64.871-57.097-84.708-15.548-9.918-33.24-16.888-50.664-23.59-22.517-8.846-34.848-27.074-31.095-49.592 3.753-23.59 22.785-39.673 51.2-39.405z"
        ],
        "attrs": [
          {},
          {}
        ],
        "isMulticolor": false,
        "isMulticolor2": false,
        "grid": 14,
        "tags": [
          "search"
        ]
      },
      "attrs": [
        {},
        {}
      ],
      "properties": {
        "order": 12,
        "id": 8,
        "name": "search",
        "prevSize": 32,
        "code": 59653
      },
      "setIdx": 0,
      "setId": 5,
      "iconIdx": 1
    },
    {
      "icon": {
        "paths": [
          "M0 881.852c13.114-8.662 23.407-16.368 34.511-22.639 54.872-30.999 109.786-61.939 165.042-92.243 28.838-15.817 41.686-39.509 43.175-72.070 1.873-40.911-2.953-77.614-27.951-113.493-19.537-28.042-27.635-64.024-41.099-96.358-2.203-5.289-4.98-10.908-9.030-14.755-13.552-12.872-20.593-28.371-20.774-46.849-0.255-26.181-1.551-52.487 0.557-78.498 1.085-13.39 8.569-26.264 13.178-39.362 2.022-5.745 5.794-11.455 5.856-17.213 0.417-38.623 0.24-77.256-0.103-115.884-0.66-74.615 39.205-132.19 111.239-155.512 69.638-22.546 140.427-22.647 210.134-0.216 73.636 23.695 113.21 81.548 112.161 158.725-0.52 38.195-0.394 76.401-0.1 114.599 0.036 4.627 1.878 10.061 4.712 13.696 9.643 12.364 14.657 26.099 14.724 41.645 0.108 25.754 0.283 51.51-0.033 77.261-0.319 25.906-12.068 44.85-35.292 56.928-3.975 2.066-7.91 6.572-9.345 10.805-15.958 47.117-38.53 90.615-68.831 130.152-2.813 3.669-4.099 9.337-4.197 14.114-0.438 21.454-0.131 42.92-0.201 64.382-0.103 31.88 14.278 54.952 42.444 69.421 59.476 30.554 119.112 60.795 178.488 91.54 12.478 6.462 24.125 14.528 38.584 23.332-93.441 78.895-198.229 125.623-317.354 137.477-164.996 16.417-310.632-31.231-440.496-138.984z"
        ],
        "width": 758,
        "attrs": [
          {}
        ],
        "isMulticolor": false,
        "isMulticolor2": false,
        "tags": [
          "avtar"
        ],
        "grid": 14
      },
      "attrs": [
        {}
      ],
      "properties": {
        "order": 6,
        "id": 3,
        "name": "avtar",
        "prevSize": 32,
        "code": 59651
      },
      "setIdx": 0,
      "setId": 5,
      "iconIdx": 4
    },
    {
      "icon": {
        "paths": [
          "M614.286 676.571c0 4.571-2.286 9.714-5.714 13.143l-28.571 28.571c-3.429 3.429-8 5.714-13.143 5.714-4.571 0-9.714-2.286-13.143-5.714l-224.571-224.571-224.571 224.571c-3.429 3.429-8.571 5.714-13.143 5.714s-9.714-2.286-13.143-5.714l-28.571-28.571c-3.429-3.429-5.714-8.571-5.714-13.143s2.286-9.714 5.714-13.143l266.286-266.286c3.429-3.429 8.571-5.714 13.143-5.714s9.714 2.286 13.143 5.714l266.286 266.286c3.429 3.429 5.714 8.571 5.714 13.143z"
        ],
        "width": 658.2857142857142,
        "attrs": [],
        "isMulticolor": false,
        "isMulticolor2": false,
        "tags": [
          "angle-up"
        ],
        "defaultCode": 61702,
        "grid": 14
      },
      "attrs": [],
      "properties": {
        "name": "angle-up",
        "id": 4,
        "order": 7,
        "prevSize": 32,
        "code": 61702
      },
      "setIdx": 0,
      "setId": 5,
      "iconIdx": 5
    },
    {
      "icon": {
        "paths": [
          "M614.286 420.571c0 4.571-2.286 9.714-5.714 13.143l-266.286 266.286c-3.429 3.429-8.571 5.714-13.143 5.714s-9.714-2.286-13.143-5.714l-266.286-266.286c-3.429-3.429-5.714-8.571-5.714-13.143s2.286-9.714 5.714-13.143l28.571-28.571c3.429-3.429 8-5.714 13.143-5.714 4.571 0 9.714 2.286 13.143 5.714l224.571 224.571 224.571-224.571c3.429-3.429 8.571-5.714 13.143-5.714s9.714 2.286 13.143 5.714l28.571 28.571c3.429 3.429 5.714 8.571 5.714 13.143z"
        ],
        "width": 658.2857142857142,
        "attrs": [],
        "isMulticolor": false,
        "isMulticolor2": false,
        "tags": [
          "angle-down"
        ],
        "defaultCode": 61703,
        "grid": 14
      },
      "attrs": [],
      "properties": {
        "name": "angle-down",
        "id": 5,
        "order": 8,
        "prevSize": 32,
        "code": 61703
      },
      "setIdx": 0,
      "setId": 5,
      "iconIdx": 6
    },
    {
      "icon": {
        "paths": [
          "M384 690l452-452 60 60-512 512-238-238 60-60z"
        ],
        "attrs": [],
        "isMulticolor": false,
        "isMulticolor2": false,
        "tags": [
          "check"
        ],
        "defaultCode": 58826,
        "grid": 24
      },
      "attrs": [],
      "properties": {
        "order": 4,
        "ligatures": "check",
        "id": 6,
        "prevSize": 24,
        "code": 58826,
        "name": "check"
      },
      "setIdx": 0,
      "setId": 5,
      "iconIdx": 2
    },
    {
      "icon": {
        "paths": [
          "M810 274l-238 238 238 238-60 60-238-238-238 238-60-60 238-238-238-238 60-60 238 238 238-238z"
        ],
        "attrs": [],
        "isMulticolor": false,
        "isMulticolor2": false,
        "tags": [
          "close"
        ],
        "defaultCode": 58829,
        "grid": 24
      },
      "attrs": [],
      "properties": {
        "order": 5,
        "ligatures": "clear, close",
        "id": 7,
        "prevSize": 24,
        "code": 58829,
        "name": "close"
      },
      "setIdx": 0,
      "setId": 5,
      "iconIdx": 3
    },
    {
      "icon": {
        "paths": [
          "M1024 511.401c0.031 283.545-228.807 512.605-512.1 512.599-283.717-0.006-512.031-229.334-511.9-514.178 0.13-282.091 230.306-510.010 514.872-509.822 280.11 0.186 509.097 230.195 509.128 511.401zM512.53 64.026c-246.629-0.067-448.354 200.868-448.504 446.75-0.153 246.959 200.413 448.937 446.056 449.197 247.794 0.264 449.739-200.271 449.891-446.75 0.153-247.497-200.693-449.128-447.444-449.197z",
          "M400.867 439.099c38.030 77.347 91.566 132.276 162.774 170.237 8.278 4.412 13.417 5.062 20.019-2.464 9.427-10.745 19.803-20.724 30.331-30.423 18.263-16.828 40.644-16.781 58.254 0.45 25.103 24.562 49.871 49.477 74.455 74.561 16.656 16.995 16.87 39.614 1.254 57.291-35.776 40.508-79.75 56.009-133.189 45.034-48.264-9.913-92.202-29.64-132.62-57.177-71.103-48.436-130.020-109.315-178.484-180.121-33.34-48.711-50.925-102.167-43.069-162.211 4.901-37.461 23.863-66.532 53.020-89.185 14.93-11.6 35.993-10.118 49.718 3.175 26.555 25.719 52.74 51.841 78.432 78.421 15.66 16.198 14.763 38.94-1.063 56.195-6.241 6.807-12.754 13.412-19.598 19.606-6.827 6.177-14.225 11.719-20.236 16.614z"
        ],
        "attrs": [
          {},
          {}
        ],
        "isMulticolor": false,
        "isMulticolor2": false,
        "tags": [
          "call"
        ],
        "grid": 0
      },
      "attrs": [
        {},
        {}
      ],
      "properties": {
        "order": 9,
        "id": 0,
        "name": "call",
        "prevSize": 32,
        "code": 59648
      },
      "setIdx": 0,
      "setId": 5,
      "iconIdx": 7
    },
    {
      "icon": {
        "paths": [
          "M720.971 116.213c-109.849-55.46-223.353-67.441-340.519-31.9-92.040 27.918-167.336 81.157-225.452 157.831-117.377 154.861-121.714 365.471-11.36 524.352 110.479 159.062 309.26 228.815 493.672 175.16 175.637-51.098 333.576-223.699 321.651-460.464 20.546 0 41.078 0 63.573 0 0 19.988 1.045 40.188-0.161 60.254-13.431 223.561-167.688 410.475-384.503 466.403-287.211 74.087-579.344-114.493-630.092-406.748-49.041-282.417 138.766-547.308 422.267-594.183 100.511-16.62 197.758-3.050 291.134 38.047 8.634 3.799 11.451 7.389 8.884 17.499-4.289 16.894-5.984 34.448-9.094 53.749z",
          "M406.828 448.935c36.949 76.316 91.702 131.787 164.302 170.059 7.359 3.879 11.363 2.54 16.498-2.958 9.765-10.456 19.922-20.576 30.347-30.375 19.173-18.023 41.532-17.89 60.24 0.538 24.342 23.978 48.442 48.209 72.426 72.548 18.219 18.491 17.654 40.928 0.302 60.329-43.385 48.509-96.39 54.603-155.518 37.171-68.93-20.321-126.799-58.959-178.615-107.417-41.222-38.552-79.527-79.787-110.337-127.431-31.271-48.356-48.22-100.305-40.604-158.685 4.883-37.432 23.879-66.465 53.020-89.082 14.914-11.576 35.954-10.037 49.67 3.255 26.527 25.703 52.695 51.797 78.362 78.36 15.627 16.173 14.939 39.151-1.217 56.086-12.405 12.996-25.811 25.038-38.876 37.603z",
          "M1022.636 424.258c-5.557 0-9.638 0-15.095 0-3.926-23.809-20.956-35.926-41.593-45.262-18.896-8.548-37.138-18.533-55.809-27.594-14.365-6.973-21.247-18.308-21.866-34.090-0.638-16.273-0.743-31.759 11.828-45.095 6.075-6.444 8.34-16.334 13.118-24.184 4.3-7.062 10.112-13.204 14.421-20.263 2.739-4.492 5.537-9.915 5.54-14.923 0.011-13.486 0.491-26.399-5.717-40.146-5.221-11.559-1.506-27.217-1.5-41.058 0.017-38.047-17.687-59.225-55.731-61.562-19.842-1.217-40.665 0.524-59.874 5.471-22.797 5.87-33.738 24.586-34.032 48.223-0.274 22.234-1.378 43.867-6.374 66.198-7.592 33.932 14.704 61.934 30.461 89.736 13.888 24.5 7.525 58.271-17.016 71.813-17.368 9.585-34.839 18.979-52.271 28.448-24.231 13.165-28.803 18.505-37.31 44.050-4.206 0-8.64 0-14.119 0 2.989-23.646 14.532-40.773 34.601-52.069 19.697-11.088 39.68-21.663 59.511-32.516 17.379-9.51 23.416-33.356 13.805-50.888-10.786-19.681-23.241-39.001-30.156-60.057-4.93-15.017-5.873-33.841-1.364-48.786 4.852-16.090 5.451-31.49 5.396-47.399-0.164-45.461 19.326-70.92 64.258-76.377 21.915-2.662 45.386-1.295 66.911 3.654 31.883 7.331 47.336 32.851 48.497 65.763 0.962 27.264 4.747 54.423 7.112 81.642 1.267 14.59-3.305 25.65-14.657 36.575-9.408 9.053-12.039 24.741-20.074 35.737-8.227 11.263-10.403 22.733-10.104 36.009 0.25 11.066 4.586 18.275 14.332 23.047 22.367 10.952 44.63 22.121 66.9 33.267 21.305 10.658 33.96 27.669 37.972 52.634z"
        ],
        "width": 1023,
        "attrs": [
          {},
          {},
          {}
        ],
        "isMulticolor": false,
        "isMulticolor2": false,
        "tags": [
          "call-2"
        ],
        "grid": 0
      },
      "attrs": [
        {},
        {},
        {}
      ],
      "properties": {
        "order": 10,
        "id": 1,
        "name": "call-2",
        "prevSize": 32,
        "code": 59649
      },
      "setIdx": 0,
      "setId": 5,
      "iconIdx": 8
    },
    {
      "icon": {
        "paths": [
          "M193.192 961.766c270.237 0 538.065 0 807.771 0 0-6.26 0-11.796 0-17.332 0-188.114-0.087-376.224 0.223-564.338 0.019-10.889-3.133-17.684-12.108-24.225-126.572-92.221-252.952-184.705-378.989-277.65-10.348-7.633-16.568-6.869-26.474 0.411-174.747 128.449-349.797 256.484-524.782 384.608-2.078 1.522-4.138 3.071-6.25 4.546-17.91 12.488-35.269 10.933-46.329-4.135-10.998-14.984-7.376-32.585 10.030-45.376 66.83-49.118 133.796-98.054 200.71-147.055 117.207-85.829 234.411-171.657 351.625-257.477 25.162-18.42 31.787-18.371 57.478 0.436 182.058 133.289 364.107 266.588 546.156 399.886 2.91 2.131 5.879 4.191 8.663 6.482 14.282 11.758 17.183 28.394 7.469 42.416-10.079 14.551-27.865 17.938-43.524 7.002-22.799-15.924-44.977-32.742-67.455-49.128-4.076-2.972-8.332-5.694-15.272-10.413 0 8.52 0 14.458 0 20.396 0 183.475 0.006 366.949-0.009 550.421-0.003 34.215-8.629 42.76-42.961 42.76-281.906 0-563.812 0.003-845.721 0-32.161 0-41.402-9.133-41.408-41.213-0.028-158.22-0.019-316.442 0.015-474.662 0-5.143-0.065-10.361 0.724-15.414 2.36-15.133 15.083-25.558 30.308-25.304 14.632 0.244 26.913 10.336 29.18 24.791 1.030 6.566 0.891 13.354 0.894 20.041 0.043 143.276 0.034 286.548 0.034 429.824 0.003 6.102 0.003 12.207 0.003 19.701z"
        ],
        "width": 1194,
        "attrs": [
          {}
        ],
        "isMulticolor": false,
        "isMulticolor2": false,
        "tags": [
          "home"
        ],
        "grid": 0
      },
      "attrs": [
        {}
      ],
      "properties": {
        "order": 11,
        "id": 2,
        "name": "home",
        "prevSize": 32,
        "code": 59650
      },
      "setIdx": 0,
      "setId": 5,
      "iconIdx": 9
    }
  ],
  "height": 1024,
  "metadata": {
    "name": "xicons"
  },
  "preferences": {
    "showGlyphs": true,
    "showCodes": true,
    "showQuickUse": true,
    "showQuickUse2": true,
    "showSVGs": true,
    "fontPref": {
      "prefix": "x-",
      "metadata": {
        "fontFamily": "xicons",
        "majorVersion": 1,
        "minorVersion": 0
      },
      "metrics": {
        "emSize": 1024,
        "baseline": 6.25,
        "whitespace": 50
      },
      "embed": false
    },
    "imagePref": {
      "prefix": "icon-",
      "png": true,
      "useClassSelector": true,
      "color": 0,
      "bgColor": 16777215
    },
    "historySize": 100
  }
}